{
  "authorId": 10,
  "authorName": {
    "first": "Robert",
    "second": "Burns"
  },
  "nationality": "Scottish",
  "birth": {
    "date": "1759-01-25",
    "country": "Scotland",
    "city": "Dumfries"
  },
  "authorDescription": "Romanticism"
}
